1	1041113	陳郁翔	56
2	1060425	鄭善峰	64
3	1063502	朱旭崴	49
4	1063509	謝閔元	5
5	1063519	羅哲琛	54
6	1063533	布晶	58
7	1063736	黃楷倫	57
8	1071412	魏瑋德	57
9	1073505	陳柏堯	48
10	1073509	呂定豪	79
11	1073513	王辰豪	55
12	1073514	黃祥庭	64
13	1073515	賴柏丞	75
14	1073516	戴瑋岑	59
15	1073517	梁華軒	74
16	1073519	范姜槿	68
17	1073520	林可妮	43
18	1073522	林璟翔	86
19	1073524	林璟騰	69
20	1073525	謝志傑	15
21	1073526	王雨彤	52
22	1073528	陳惟喆	10
23	1073529	杜維倫	25
24	1073530	許芝榕	84
25	1073531	李泳琪	83
26	1083501	蘇御崴	55
27	1083502	曾冠智	53
28	1083503	林　昀	45
29	1083504	吳承諺	91
30	1083505	李冠緯	71
31	1083506	李聿賢	15
32	1083507	陳皓群	76
33	1083508	葉伃真	38
34	1083509	陳　灝	15
35	1083510	簡曉靖	93
36	1083511	邱湘珺	59
37	1083512	潘羿憲	58
38	1083513	張芮瑀	87
39	1083514	趙雯琪	63
40	1083515	呂琳萱	48
41	1083516	張睿文	42
42	1083517	劉寬宇	93
43	1083519	戴尼爾	82
44	1083520	謝宏陽	98
45	1083521	溫淯丞	76
46	1083522	鍾崴光	95
47	1083523	吳駿宇	50
48	1083524	陳均岱	20
49	1083525	廖珈鋒	40
50	1083526	陳正穎	52
51	1083528	施布婁	57
52	1083529	水上海斗	58
53	1083530	民允	20
54	1083532	劉卡辛	45
55	1083533	施瓦	47
56	1083535	李美文	82